{
    "_default": {
        "1": {
            "nom": "Carrer",
            "prenom": "Anthony",
            "age": "26",
            "email": "anthony.carrer@hotmail.fr"
        },
        "2": {
            "nom": "Jean-pierre",
            "prenom": "patate",
            "age": "45",
            "email": "jpp@gmail.com"
        },
        "3": {
            "nom": "Mercier",
            "prenom": "Lucien",
            "age": "20",
            "email": "lucien.mercier@gmail.com"
        }
    }
}